{
  "queryParams": {
    "dateWindow": 24,
    "pageSize": 5,
    "category": "美食",
    "tagId": 628
  },
  "total": 1000,
  "count": 5,
  "hasMore": true,
  "data": {
    "code": 0,
    "data": {
      "page": {
        "page": 1,
        "page_size": 5,
        "total": 1000
      },
      "objs": [
        {
          "item_id": "7572411015904693542",
          "item_title": "带入薯饼视角belike：人在工位，昏昏欲碎\n#麦当劳#脆薯饼全日制#抽象#精神状态#麦当劳随心配",
          "item_cover_url": "https://p26-sign.douyinpic.com/tos-cn-i-dy/54b25bf9bea14decad8ce1c239b9519d~tplv-dy-resize-walign-adapt-aq:540:q75.jpeg?lk3s=138a59ce&x-expires=1764554400&x-signature=Ic6PfvA4nARm4Q1fc3D%2FksZ60Ec%3D&from=327834062&s=PackSourceEnum_PUBLISH&se=false&sc=cover&biz_tag=aweme_video&l=2025111710564860A52E1BDB33501D8088",
          "item_duration": 41234,
          "nick_name": "麦当劳",
          "avatar_url": "https://p3.douyinpic.com/aweme/100x100/aweme-avatar/tos-cn-avt-0015_624ff091ebfb1aaacaabfc7699878a55.jpeg?from=2956013662",
          "fans_cnt": 2313673,
          "play_cnt": 6266497,
          "publish_time": 1763089336,
          "score": 825787,
          "item_url": "https://v3-cold4.douyinvod.com/2eea91eb02b713ee8206f49df4d1d8dd/691a9d2a/video/tos/cn/tos-cn-ve-15/okxQNzFZgZvBE6LCkacM8B87xVAWBjSAPfeSRe/?a=1128&ch=10&cr=3&dr=0&lr=all&cd=0%7C0%7C0%7C3&cv=1&br=3951&bt=3951&cs=0&ds=6&ft=r5QvG77JWH6BM7leQvr0PD1IN&mime_type=video_mp4&qs=0&rc=NTRnZmlpNDU5ZmU0OzQ0NkBpanNnbW85cmQ8NzMzNGkzM0AyNV42NWMzXi8xMGI1Ml9iYSM0L3BxMmRrYF9hLS1kLS9zcw%3D%3D&btag=c0010e00098000&cquery=105O_103Q_103W_103Y_100b&dy_q=1763348209&feature_id=f0150a16a324336cda5d6dd0b69ed299&l=2025111710564860A52E1BDB33501D8088",
          "like_cnt": 308324,
          "follow_cnt": 11532,
          "follow_rate": 0.001625,
          "like_rate": 0.049202,
          "media_type": 4,
          "favorite_id": 0,
          "is_favorite": false,
          "image_cnt": 0
        },
        {
          "item_id": "7570561147330897851",
          "item_title": "“所以喜欢能当饭吃” #恋爱要从一束花和告白开始 #夸父炸串",
          "item_cover_url": "https://p3-sign.douyinpic.com/tos-cn-i-0813c000-ce/ogIB0iAwrNhAAEtH5PSEjDAAiAeUQoAEDwfieC~tplv-dy-resize-walign-adapt-aq:540:q75.jpeg?lk3s=138a59ce&x-expires=1764554400&x-signature=jGgkaJ6I7bw973ZxQ7MJU4rxpkA%3D&from=327834062&s=PackSourceEnum_PUBLISH&se=false&sc=cover&biz_tag=aweme_video&l=2025111710564860A52E1BDB33501D8088",
          "item_duration": 6067,
          "nick_name": "宋.",
          "avatar_url": "https://p3.douyinpic.com/aweme/100x100/aweme-avatar/tos-cn-avt-0015_27d458266e136bbcadf33002e39eb793.jpeg?from=2956013662",
          "fans_cnt": 782664,
          "play_cnt": 10382598,
          "publish_time": 1762659234,
          "score": 528618,
          "item_url": "https://v11-cold.douyinvod.com/1457722cced0f83fdb9525b1aa8dd3c0/691a9d07/video/tos/cn/tos-cn-ve-15c000-ce/o42OQ6Ff6ceOGjyqEgDAIiE19QpwcCYACAEwfS/?a=1128&ch=10&cr=3&dr=0&lr=all&cd=0%7C0%7C0%7C3&cv=1&br=1966&bt=1966&cs=0&ds=6&ft=r5QvG77JWH6BM7leQvr0PD1IN&mime_type=video_mp4&qs=0&rc=ZDg1ZmRnO2Q0ZzZkZDtnZkBpamszNnQ5cjYzNzMzbGkzNEA1NS1iYWM1X18xMDNfXmAzYSNyYmdoMmRrZTVhLS1kLWJzcw%3D%3D&btag=c0010e0008d000&cquery=103R_103S_100b_105O_103Q&dy_q=1763348209&feature_id=f0150a16a324336cda5d6dd0b69ed299&l=2025111710564860A52E1BDB33501D8088",
          "like_cnt": 707871,
          "follow_cnt": 4196,
          "follow_rate": 0.000433,
          "like_rate": 0.068179,
          "media_type": 4,
          "favorite_id": 0,
          "is_favorite": false,
          "image_cnt": 0
        },
        {
          "item_id": "7572639276778799545",
          "item_title": "先来一支微微辣 压压惊。 #辣椒",
          "item_cover_url": "https://p11-sign.douyinpic.com/tos-cn-p-0015c000-ce/o8AjqnarxiI1kpIXtaBJMZPqgPxRBdGoAiMEn~tplv-dy-resize-walign-adapt-aq:540:q75.jpeg?lk3s=138a59ce&x-expires=1764554400&x-signature=caNzA3fFcZLiyDtMmwq9MKAh9Zs%3D&from=327834062&s=PackSourceEnum_PUBLISH&se=false&sc=cover&biz_tag=aweme_video&l=2025111710564860A52E1BDB33501D8088",
          "item_duration": 11900,
          "nick_name": "我叫小幺朵 （啊卫）",
          "avatar_url": "https://p3.douyinpic.com/aweme/100x100/aweme-avatar/tos-cn-i-0813c000-ce_ooAjnEEIBPJmBCMxwifwAlAApiCSA0EAw9DebY.jpeg?from=2956013662",
          "fans_cnt": 389,
          "play_cnt": 5979798,
          "publish_time": 1763142492,
          "score": 483784,
          "item_url": "https://v3-cold2.douyinvod.com/3fe49532318366c4ada55781df46473e/691a9d0c/video/tos/cn/tos-cn-ve-15c000-ce/oYPiaQAMBJi1Ad0YBnPIEGHnxIMWCtqh9xRZC/?a=1128&ch=10&cr=3&dr=0&lr=all&cd=0%7C0%7C0%7C3&cv=1&br=1267&bt=1267&cs=0&ds=6&ft=r5QvG77JWH6BM7leQvr0PD1IN&mime_type=video_mp4&qs=0&rc=OzNkZjc1ZTw3OTQ4NzY8NEBpamZ2NWs5cmdwNzMzbGkzNUAtYjEvXjMzXzQxY2AzYmM2YSNnYGAxMmQ0aV9hLS1kLTRzcw%3D%3D&btag=c0010e00088000&cquery=103S_100b_105O_103Q_103R&dy_q=1763348209&feature_id=f0150a16a324336cda5d6dd0b69ed299&l=2025111710564860A52E1BDB33501D8088",
          "like_cnt": 50178,
          "follow_cnt": 395,
          "follow_rate": 0.000068,
          "like_rate": 0.008391,
          "media_type": 4,
          "favorite_id": 0,
          "is_favorite": false,
          "image_cnt": 0
        },
        {
          "item_id": "7572561491002800741",
          "item_title": "美中不足漏掉了一个，下次继续",
          "item_cover_url": "https://p26-sign.douyinpic.com/tos-cn-p-0015c000-ce/ocgNRXSEyLEZFxIpAfAI9JzFGfI5I8AnEDIBwP~tplv-dy-resize-walign-adapt-aq:540:q75.jpeg?lk3s=138a59ce&x-expires=1764554400&x-signature=VnhxRTSeJEfQzkVGZyIdIHl3xHI%3D&from=327834062&s=PackSourceEnum_PUBLISH&se=false&sc=cover&biz_tag=aweme_video&l=2025111710564860A52E1BDB33501D8088",
          "item_duration": 6467,
          "nick_name": "宁阳广场最辛苦的男人",
          "avatar_url": "https://p3.douyinpic.com/aweme/100x100/aweme-avatar/tos-cn-i-0813c000-ce_oAAPoifTA80eQBz6I3HEx1AlBFiAO0yewAE1Eq.jpeg?from=2956013662",
          "fans_cnt": 33565,
          "play_cnt": 6703398,
          "publish_time": 1763124368,
          "score": 458001,
          "item_url": "https://v5-wha.douyinvod.com/22a0a678592211ad9916f08a349eca4e/691a9d07/video/tos/cn/tos-cn-ve-15c000-ce/o4ZfmDSIIIFyEoLfAwgXznpsP09PFA3KEENBOO/?a=1128&ch=10&cr=3&dr=0&lr=all&cd=0%7C0%7C0%7C3&cv=1&br=1119&bt=1119&cs=0&ds=6&ft=vwbdHCJrBBkq8ZmoBtgfU_vjVQWw&mime_type=video_mp4&qs=0&rc=NzY8OTo2ZGllZzQ1PDpmZkBpM3Nudmo5cjVsNzMzbGkzNUA2YWAzLzM1XzAxL2NgXmMyYSMxcm1jMmRzNl9hLS1kLTRzcw%3D%3D&btag=c0010e0008d600&cquery=103S_100b_105O_103Q_103R&dy_q=1763348209&feature_id=f0150a16a324336cda5d6dd0b69ed299&l=2025111710564860A52E1BDB33501D8088",
          "like_cnt": 66035,
          "follow_cnt": 691,
          "follow_rate": 0.000101,
          "like_rate": 0.009851,
          "media_type": 4,
          "favorite_id": 0,
          "is_favorite": false,
          "image_cnt": 0
        },
        {
          "item_id": "7572516942834060584",
          "item_title": "大鹅吃49天中药会发生什么？ #当季新菜单挑战赛",
          "item_cover_url": "https://p26-sign.douyinpic.com/tos-cn-i-dy/3baaf5c5290b41d08b2bef8f3388ab1b~tplv-dy-resize-walign-adapt-aq:540:q75.jpeg?lk3s=138a59ce&x-expires=1764554400&x-signature=3kXUks4wj0ZhGWn0n4PS%2BEleuus%3D&from=327834062&s=PackSourceEnum_PUBLISH&se=false&sc=cover&biz_tag=aweme_video&l=2025111710564860A52E1BDB33501D8088",
          "item_duration": 309244,
          "nick_name": "南翔",
          "avatar_url": "https://p3.douyinpic.com/aweme/100x100/aweme-avatar/tos-cn-avt-0015_936ff79bcce3596a9fa0c4628fe0562a.jpeg?from=2956013662",
          "fans_cnt": 29629301,
          "play_cnt": 32011939,
          "publish_time": 1763118006,
          "score": 452846,
          "item_url": "https://v11-cold.douyinvod.com/21c8025fd0ca69ef2456177309f077ac/691a9e36/video/tos/cn/tos-cn-ve-15/o88kqe2QDsMW0XNQ1FXUjQfxC6iFIAEyffhMvA/?a=1128&ch=10&cr=3&dr=0&lr=all&cd=0%7C0%7C0%7C3&cv=1&br=1310&bt=1310&cs=0&ds=6&ft=r5QvG77JWH6BM7leQvr0PD1IN&mime_type=video_mp4&qs=0&rc=ODM8aWY5ODc4NDxoPDo8NUBpaml0eHg5cjdpNzMzNGkzM0A1NTUyLzAtNWIxYzYwNi9jYSNyYzJeMmRjaV9hLS1kLTBzcw%3D%3D&btag=c0010e000b5001&cquery=105O_103Q_103W_103Y_100b&dy_q=1763348209&feature_id=f0150a16a324336cda5d6dd0b69ed299&l=2025111710564860A52E1BDB33501D8088",
          "like_cnt": 939923,
          "follow_cnt": 62569,
          "follow_rate": 0.002144,
          "like_rate": 0.029362,
          "media_type": 4,
          "favorite_id": 0,
          "is_favorite": false,
          "image_cnt": 0
        }
      ]
    },
    "extra": {
      "now": 1763348209000
    },
    "message": ""
  }
}