{
  "queryParams": {
    "dateWindow": 24,
    "pageSize": 10,
    "category": "全部"
  },
  "total": 1000,
  "count": 10,
  "hasMore": true,
  "data": {
    "code": 0,
    "data": {
      "page": {
        "page": 1,
        "page_size": 10,
        "total": 1000
      },
      "objs": [
        {
          "item_id": "7572586014012717994",
          "item_title": "他家👟真靠谱👉@潮鞋聚友（🉐档口） 过个纪念日男朋友的头发被火烧了。",
          "item_cover_url": "https://p3-sign.douyinpic.com/tos-cn-i-0813/oE1TuAJfnaA76EQSALFfBEApodXAUKIs7ADsBf~tplv-dy-resize-walign-adapt-aq:540:q75.jpeg?lk3s=138a59ce&x-expires=1764558000&x-signature=pZIcNca6%2BjKSLr5pWbXctXPCnb8%3D&from=327834062&s=PackSourceEnum_PUBLISH&se=false&sc=cover&biz_tag=aweme_video&l=2025111711171762F9CFDCE6CCFAADBF65",
          "item_duration": 12134,
          "nick_name": "Yaooo.",
          "avatar_url": "https://p11.douyinpic.com/aweme/100x100/aweme-avatar/tos-cn-avt-0015_d9977c67c2a0822fb2a77ae1cc3845c4.jpeg?from=2956013662",
          "fans_cnt": 12824,
          "play_cnt": 111227583,
          "publish_time": 1763130079,
          "score": 4155846,
          "item_url": "https://v3-cold4.douyinvod.com/e29be1b2e1d74ac1351206995ed7c1e8/691aa1d9/video/tos/cn/tos-cn-ve-15/oUm16FnAEI4QgfFUzufnGDGA9dQMpDNoAgNGB0/?a=1128&ch=10&cr=3&dr=0&lr=all&cd=0%7C0%7C0%7C3&cv=1&br=1170&bt=1170&cs=0&ds=6&ft=r5QvG77JWH6BMI82Qvr0PD1IN&mime_type=video_mp4&qs=0&rc=aTZmaWY0OTNoNDtkZWdkNkBpandqdHQ5cmttNzMzNGkzM0AuMmBgMjAzXzIxYTA2LzBiYSMuaC9tMmRrZ19hLS1kLWFzcw%3D%3D&btag=80010e00088000&cquery=103S_100b_105O_103Q_103R&dy_q=1763349437&feature_id=f0150a16a324336cda5d6dd0b69ed299&l=2025111711171762F9CFDCE6CCFAADBF65",
          "like_cnt": 1841015,
          "follow_cnt": 15158,
          "follow_rate": 0.000141,
          "like_rate": 0.016552,
          "media_type": 4,
          "favorite_id": 0,
          "is_favorite": false,
          "image_cnt": 0
        },
        {
          "item_id": "7572608358021563813",
          "item_title": "大家不要吵了 作者和那个“想你了”的室友是山西人 然后那个骂我的是四川人 我争取给大家出个后续🙏",
          "item_cover_url": "https://p26-sign.douyinpic.com/tos-cn-p-0015c000-ce/oEXPIMARJNXhzPRiYTCaHXAJAz74Bdi9PyEOy~tplv-dy-resize-walign-adapt-aq:540:q75.jpeg?lk3s=138a59ce&x-expires=1764558000&x-signature=z%2BsUqnJHa2euJ7mywaUCr10QZG0%3D&from=327834062&s=PackSourceEnum_PUBLISH&se=false&sc=cover&biz_tag=aweme_video&l=2025111711171762F9CFDCE6CCFAADBF65",
          "item_duration": 9400,
          "nick_name": "x.",
          "avatar_url": "https://p11.douyinpic.com/aweme/100x100/aweme-avatar/tos-cn-avt-0015_6fbc4440b672278d1bb41a1142fe507f.jpeg?from=2956013662",
          "fans_cnt": 2050,
          "play_cnt": 7876458,
          "publish_time": 1763135284,
          "score": 1096031,
          "item_url": "https://v11-coldf.douyinvod.com/763e7da02fa2c31ad1a3ee5225a5b271/691aa1d6/video/tos/cn/tos-cn-ve-15c000-ce/o42hRER9PQJBALiTiCJIzXYdMPAaBXPnzXrHb/?a=1128&ch=10&cr=3&dr=0&lr=all&cd=0%7C0%7C0%7C3&cv=1&br=600&bt=600&cs=0&ds=3&ft=r5QvG77JWH6BMI82Qvr0PD1IN&mime_type=video_mp4&qs=0&rc=ZTQ0aTw7OmY0aTM4OjdpPEBpamt2cHc5cjxuNzMzbGkzNEBiM18uYzA0NWIxXl5fNWA0YSMwMS9tMmQ0cl9hLS1kLWJzcw%3D%3D&btag=80010e0008d000&cquery=103R_103S_100b_105O_103Q&dy_q=1763349437&feature_id=fea919893f650a8c49286568590446ef&l=2025111711171762F9CFDCE6CCFAADBF65",
          "like_cnt": 353257,
          "follow_cnt": 1265,
          "follow_rate": 0.000158,
          "like_rate": 0.04485,
          "media_type": 4,
          "favorite_id": 0,
          "is_favorite": false,
          "image_cnt": 0
        },
        {
          "item_id": "7372379121629842700",
          "item_title": "#续火花 #火花没了你就消失 赶紧给我续🤬",
          "item_cover_url": "https://p3-sign.douyinpic.com/tos-cn-p-0015/oEeEsej8EfBZWCAUQc5025yMAQeDMsBLs2PRgY~tplv-dy-resize-walign-adapt-aq:540:q75.jpeg?lk3s=138a59ce&x-expires=1764558000&x-signature=IYHX5yBH9%2FO1hVglDXuuJ%2Fzod4I%3D&from=327834062&s=PackSourceEnum_PUBLISH&se=false&sc=cover&biz_tag=aweme_video&l=2025111711171762F9CFDCE6CCFAADBF65",
          "item_duration": 4125,
          "nick_name": "宇宙无敌爆龙大帅哥",
          "avatar_url": "https://p11.douyinpic.com/aweme/100x100/aweme-avatar/tos-cn-avt-0015_2c7cb00bd5d03ce6de9294876ba79fe5.jpeg?from=2956013662",
          "fans_cnt": 8837,
          "play_cnt": 239542,
          "publish_time": 1716515790,
          "score": 1058683,
          "item_url": "https://v11-colds.douyinvod.com/58ed4dcfa5ea65ec9a45bd3e549719d1/691aa1d1/video/tos/cn/tos-cn-ve-15c001-alinc2/ooQBtffg3A87DwaECelEARCGCBnFIpQCMsOLmF/?a=1128&ch=10&cr=3&dr=0&lr=all&cd=0%7C0%7C0%7C3&cv=1&br=299&bt=299&cs=0&ds=6&ft=NYGV5HJHH_Myq8ZT0Vx9e2NvjTQ&mime_type=video_mp4&qs=0&rc=PDM6NTU1Z2llZjQzNDxpaUBpamZ1cmw5cjd5czMzNGkzM0AvXzEuNjNfXjQxMGAwNl8zYSNqY19mMmRjNDRgLS1kLTBzcw%3D%3D&btag=80010e00088000&cquery=105O_103Q_103R_103S_100b&dy_q=1763349437&feature_id=f0150a16a324336cda5d6dd0b69ed299&l=2025111711171762F9CFDCE6CCFAADBF65",
          "like_cnt": 3059,
          "follow_cnt": 1268,
          "follow_rate": 0.003656,
          "like_rate": 0.01277,
          "media_type": 4,
          "favorite_id": 0,
          "is_favorite": false,
          "image_cnt": 0
        },
        {
          "item_id": "7571820728292295289",
          "item_title": "笑不活了",
          "item_cover_url": "https://p3-sign.douyinpic.com/tos-cn-i-0813c000-ce/ocfMUYWAEACEAewV5jD6npItFEALNg9uIFUAAR~tplv-dy-resize-walign-adapt-aq:540:q75.jpeg?lk3s=138a59ce&x-expires=1764558000&x-signature=Zj4IJ5woWBvG4YXm3OBaIoom0bY%3D&from=327834062&s=PackSourceEnum_PUBLISH&se=false&sc=cover&biz_tag=aweme_video&l=2025111711171762F9CFDCE6CCFAADBF65",
          "item_duration": 6083,
          "nick_name": "❀",
          "avatar_url": "https://p11.douyinpic.com/aweme/100x100/aweme-avatar/tos-cn-avt-0015_effaf4c8a0264016ba3d37ec05b800e0.jpeg?from=2956013662",
          "fans_cnt": 12646,
          "play_cnt": 13852220,
          "publish_time": 1762951895,
          "score": 961925,
          "item_url": "https://v5-coldo.douyinvod.com/e8069b4d111924afb67346c898545479/691aa1d3/video/tos/cn/tos-cn-ve-15c000-ce/oQJfpSQDQwRIBXL7fZIUNoAOgsgeS3YpSYKQGG/?a=1128&ch=10&cr=3&dr=0&lr=all&cd=0%7C0%7C0%7C3&cv=1&br=868&bt=868&cs=0&ds=6&ft=r5QvG77JWH6BMI82Qvr0PD1IN&mime_type=video_mp4&qs=0&rc=O2Y1NDM4OGk6ZWg7ZDZlaUBpamY0NnA5cmg7NzMzbGkzNUBfNS01MWBhNTExMTQ0XjIuYSNoZHIvMmRzMV5hLS1kLTRzcw%3D%3D&btag=80010e0008d000&cquery=100b_105O_103Q_103R_103S&dy_q=1763349437&feature_id=f0150a16a324336cda5d6dd0b69ed299&l=2025111711171762F9CFDCE6CCFAADBF65",
          "like_cnt": 822137,
          "follow_cnt": 4124,
          "follow_rate": 0.000302,
          "like_rate": 0.059351,
          "media_type": 4,
          "favorite_id": 0,
          "is_favorite": false,
          "image_cnt": 0
        },
        {
          "item_id": "7572495714053284721",
          "item_title": "（他家👟很靠谱） @我不是鞋神（🉐档口） #猎奇 #白虎 你咋了？@刚子",
          "item_cover_url": "https://p3-sign.douyinpic.com/tos-cn-p-0015c000-ce/ooLWe0o1iQwiA6cEEAI2GzPfgt4wxiEBBdeCJ3~tplv-dy-resize-walign-adapt-aq:540:q75.jpeg?lk3s=138a59ce&x-expires=1764558000&x-signature=%2BrCt43OYHv00rEXPA9hh6dY3gfQ%3D&from=327834062&s=PackSourceEnum_PUBLISH&se=false&sc=cover&biz_tag=aweme_video&l=2025111711171762F9CFDCE6CCFAADBF65",
          "item_duration": 25767,
          "nick_name": "舜云",
          "avatar_url": "https://p11.douyinpic.com/aweme/100x100/aweme-avatar/tos-cn-i-0813c000-ce_o0G6I8IGAeeJ5vRAfRPkB9iQ1ALvE7ApdpEuNg.jpeg?from=2956013662",
          "fans_cnt": 2056,
          "play_cnt": 6955183,
          "publish_time": 1763109055,
          "score": 897080,
          "item_url": "https://v5-coldp.douyinvod.com/e491a0eeabc251a1dda970f45da76dc1/691aa1e6/video/tos/cn/tos-cn-ve-15c000-ce/ooIL8QBIDaMfcC0MgEfZA2cK6FrhrSJBAnS7ft/?a=1128&ch=10&cr=3&dr=0&lr=all&cd=0%7C0%7C0%7C3&cv=1&br=284&bt=284&cs=0&ds=3&ft=r5QvG77JWH6BMI82Qvr0PD1IN&mime_type=video_mp4&qs=0&rc=ZDVkPGQ8N2Q4aGk4ZTo7aUBpajlvdm05cmpoNzMzbGkzNEBgMy9iLjUxXzMxXjYvYzNhYSMxbjJuMmRjY19hLS1kLWJzcw%3D%3D&btag=80010e00095000&cquery=103S_100b_105O_103Q_103R&dy_q=1763349437&feature_id=fea919893f650a8c49286568590446ef&l=2025111711171762F9CFDCE6CCFAADBF65",
          "like_cnt": 351984,
          "follow_cnt": 1688,
          "follow_rate": 0.000212,
          "like_rate": 0.050607,
          "media_type": 4,
          "favorite_id": 0,
          "is_favorite": false,
          "image_cnt": 0
        },
        {
          "item_id": "7572433754629002105",
          "item_title": "这是你自己摔得，不能怪我#自动扣费#恶搞#搞笑#整蛊",
          "item_cover_url": "https://p11-sign.douyinpic.com/tos-cn-i-0813c000-ce/oUa6sA0B7g3AYOfelBQAhoGSA4wLIJHWFgfDwL~tplv-dy-resize-walign-adapt-aq:540:q75.jpeg?lk3s=138a59ce&x-expires=1764558000&x-signature=ZZ1vZKIg7eEP6UVOxoRPScG4LR4%3D&from=327834062&s=PackSourceEnum_PUBLISH&se=false&sc=cover&biz_tag=aweme_video&l=2025111711171762F9CFDCE6CCFAADBF65",
          "item_duration": 16857,
          "nick_name": "夏季言",
          "avatar_url": "https://p11.douyinpic.com/aweme/100x100/aweme-avatar/tos-cn-avt-0015_ec3ee579d8cbeafd03e05bafba95c495.jpeg?from=2956013662",
          "fans_cnt": 43437,
          "play_cnt": 17018562,
          "publish_time": 1763094628,
          "score": 884131,
          "item_url": "https://v3-cold4.douyinvod.com/d66e618dd36129cfa545c13ab3d4e1f4/691aa1dd/video/tos/cn/tos-cn-ve-15c000-ce/oA5SulCrJAeqA7PEggLgLcOG7eJIweWIJBD4tR/?a=1128&ch=10&cr=3&dr=0&lr=all&cd=0%7C0%7C0%7C3&cv=1&br=1210&bt=1210&cs=0&ds=6&ft=r5QvG77JWH6BMI82Qvr0PD1IN&mime_type=video_mp4&qs=0&rc=ZGhpO2hnMzM3PDUzZDdmZEBpMzVlN3Q5cnFlNzMzbGkzNUAyNi00Y15gNTIxYmMyMi1gYSMxbGdrMmRjLV9hLS1kLTRzcw%3D%3D&btag=80010e00090000&cquery=103R_103S_100b_105O_103Q&dy_q=1763349437&feature_id=f0150a16a324336cda5d6dd0b69ed299&l=2025111711171762F9CFDCE6CCFAADBF65",
          "like_cnt": 991700,
          "follow_cnt": 3114,
          "follow_rate": 0.000172,
          "like_rate": 0.058272,
          "media_type": 4,
          "favorite_id": 0,
          "is_favorite": false,
          "image_cnt": 0
        },
        {
          "item_id": "7572533334119855238",
          "item_title": "傻猫赔我马桶啊 #缅因猫",
          "item_cover_url": "https://p26-sign.douyinpic.com/tos-cn-p-0015/okC95iaAiI4EgaiX4XfVt5lAeCGX0BC8AASvBJ~tplv-dy-resize-walign-adapt-aq:540:q75.jpeg?lk3s=138a59ce&x-expires=1764558000&x-signature=JK8yH8Eazvlho45Js9UkQkhl8ME%3D&from=327834062&s=PackSourceEnum_PUBLISH&se=false&sc=cover&biz_tag=aweme_video&l=2025111711171762F9CFDCE6CCFAADBF65",
          "item_duration": 105434,
          "nick_name": "黑杰克缅因猫舍",
          "avatar_url": "https://p11.douyinpic.com/aweme/100x100/aweme-avatar/tos-cn-avt-0015_44a9e3e225d3c30a462f2d5e4231226d.jpeg?from=2956013662",
          "fans_cnt": 21107,
          "play_cnt": 24866357,
          "publish_time": 1763117814,
          "score": 867100,
          "item_url": "https://v11-cold1.douyinvod.com/1031c27c0424657dbc3706523e8f157a/691aa236/video/tos/cn/tos-cn-ve-15/oo8XItiv5GClZ5nXAQBAEVi9ea0gKBAAS4i8fb/?a=1128&ch=10&cr=3&dr=0&lr=all&cd=0%7C0%7C0%7C3&cv=1&br=1467&bt=1467&cs=0&ds=6&ft=r5QvG77JWH6BMI82Qvr0PD1IN&mime_type=video_mp4&qs=0&rc=NDU8M2hpNTc0aWk4PDw2N0BpanNrNHc5cmxqNzMzNGkzM0AtMy0tMmAvXjAxLi5iYGJeYSNqY2thMmRzaV9hLS1kLS9zcw%3D%3D&btag=80010e000ad000&cquery=105O_103Q_103R_103S_100b&dy_q=1763349437&feature_id=f0150a16a324336cda5d6dd0b69ed299&l=2025111711171762F9CFDCE6CCFAADBF65",
          "like_cnt": 487607,
          "follow_cnt": 7670,
          "follow_rate": 0.000307,
          "like_rate": 0.019609,
          "media_type": 4,
          "favorite_id": 0,
          "is_favorite": false,
          "image_cnt": 0
        },
        {
          "item_id": "7572458479529573096",
          "item_title": "清理的过程内心是快要崩溃滴#家有傻狗",
          "item_cover_url": "https://p11-sign.douyinpic.com/tos-cn-i-0813/oc2ZNiBmeAA8jIAvIWiEHNCAxAagt9Ayi0f11A~tplv-dy-resize-walign-adapt-aq:540:q75.jpeg?lk3s=138a59ce&x-expires=1764558000&x-signature=EVqCE2HKZN7BvETHA%2Bk5C6T0OX8%3D&from=327834062&s=PackSourceEnum_PUBLISH&se=false&sc=cover&biz_tag=aweme_video&l=2025111711171762F9CFDCE6CCFAADBF65",
          "item_duration": 10820,
          "nick_name": "琴子",
          "avatar_url": "https://p11.douyinpic.com/aweme/100x100/aweme-avatar/tos-cn-avt-0015_53ea08050706681adf74e16159c2a64f.jpeg?from=2956013662",
          "fans_cnt": 12229,
          "play_cnt": 56989017,
          "publish_time": 1763100385,
          "score": 853329,
          "item_url": "https://v11-cold.douyinvod.com/0a4aa329b585b3295d8ff018911cd4ce/691aa1d7/video/tos/cn/tos-cn-ve-15/oAYB1LQMOLfsACaZoSfl7aAC2IIJeBgGEWxuYS/?a=1128&ch=10&cr=3&dr=0&lr=all&cd=0%7C0%7C0%7C3&cv=1&br=1812&bt=1812&cs=0&ds=6&ft=r5QvG77JWH6BMI82Qvr0PD1IN&mime_type=video_mp4&qs=0&rc=ZDtoM2k2OGY6Nzk1NDpkPEBpMzNrcHk5cm5mNzMzNGkzM0A0YGEvXi4uNTQxMjJeYDFgYSNqc2pnMmRrYV9hLS1kLWFzcw%3D%3D&btag=80010e0008d000&cquery=100b_105O_103Q_103R_103S&dy_q=1763349437&feature_id=fea919893f650a8c49286568590446ef&l=2025111711171762F9CFDCE6CCFAADBF65",
          "like_cnt": 615748,
          "follow_cnt": 6626,
          "follow_rate": 0.000113,
          "like_rate": 0.010805,
          "media_type": 4,
          "favorite_id": 0,
          "is_favorite": false,
          "image_cnt": 0
        },
        {
          "item_id": "7572748105118060623",
          "item_title": "#动画  我的脑门儿#抽象",
          "item_cover_url": "https://p3-sign.douyinpic.com/tos-cn-i-0813/oEiOkAT0iAWwAWTAi9ofAezCN5XvI1yAAkWgEB~tplv-dy-resize-walign-adapt-aq:540:q75.jpeg?lk3s=138a59ce&x-expires=1764558000&x-signature=uzU7Id%2FXhgH8NIcZ5fbux%2FMiCA4%3D&from=327834062&s=PackSourceEnum_PUBLISH&se=false&sc=cover&biz_tag=aweme_video&l=2025111711171762F9CFDCE6CCFAADBF65",
          "item_duration": 29400,
          "nick_name": "我是一个大瘦子",
          "avatar_url": "https://p11.douyinpic.com/aweme/100x100/aweme-avatar/tos-cn-avt-0015_31b0a32a93034bf4a753e96ae3ebfe83.jpeg?from=2956013662",
          "fans_cnt": 1639,
          "play_cnt": 6255189,
          "publish_time": 1763167824,
          "score": 822849,
          "item_url": "https://v11-whb.douyinvod.com/6b7edc7c3a66426c9f0984dc8c8a4fe4/691aa1ea/video/tos/cn/tos-cn-ve-15/oQS3aPZjfCpI5AF70B1E3lNQBLBDA1fc9rADEf/?a=1128&ch=10&cr=3&dr=0&lr=all&cd=0%7C0%7C0%7C3&cv=1&br=520&bt=520&cs=0&ds=6&ft=vwbdHCJrBBkq8ZmoWD9fU_vjVQWw&mime_type=video_mp4&qs=0&rc=OjU5ZTtpM2U1OjVkODo6O0Bpam46eHQ5cnl2NzMzNGkzM0AtNmNhMGM1XjIxYTUzLzE1YSNzaXA1MmRzbl9hLS1kLWFzcw%3D%3D&btag=80010e00095000&cquery=105O_103Q_103R_103S_100b&dy_q=1763349437&feature_id=f0150a16a324336cda5d6dd0b69ed299&l=2025111711171762F9CFDCE6CCFAADBF65",
          "like_cnt": 124681,
          "follow_cnt": 679,
          "follow_rate": 0.000103,
          "like_rate": 0.019932,
          "media_type": 4,
          "favorite_id": 0,
          "is_favorite": false,
          "image_cnt": 0
        },
        {
          "item_id": "7572504954951804089",
          "item_title": "《休想饿死我》后续更精彩#小说 #小说推荐",
          "item_cover_url": "https://p3-sign.douyinpic.com/tos-cn-p-0015c000-ce/oIMESolPTD8WmcFWQtFoAHIE2AfQBTefDPGkke~tplv-dy-resize-walign-adapt-aq:540:q75.jpeg?lk3s=138a59ce&x-expires=1764558000&x-signature=n%2BfUBtkO7f5LFRspHv99WVmdLUQ%3D&from=327834062&s=PackSourceEnum_PUBLISH&se=false&sc=cover&biz_tag=aweme_video&l=2025111711171762F9CFDCE6CCFAADBF65",
          "item_duration": 26134,
          "nick_name": "狗子狗子🐶",
          "avatar_url": "https://p11.douyinpic.com/aweme/100x100/aweme-avatar/tos-cn-avt-0015_d72e1ff46a6b55299dd2e394dafdecc4.jpeg?from=2956013662",
          "fans_cnt": 6089,
          "play_cnt": 5885916,
          "publish_time": 1763111205,
          "score": 784984,
          "item_url": "https://v3-cold.douyinvod.com/6b287c175ab40b563f7cdf68541cd27f/691aa1e7/video/tos/cn/tos-cn-ve-15c000-ce/o0CHQflPDTYkFqmDeXETezIBWGcEMtFAfo2zHA/?a=1128&ch=10&cr=3&dr=0&lr=all&cd=0%7C0%7C0%7C3&cv=1&br=834&bt=834&cs=0&ds=6&ft=r5QvG77JWH6BMI82Qvr0PD1IN&mime_type=video_mp4&qs=0&rc=O2Q1ZTw8MzwzZDk8Z2U0M0BpajhyNnk5cnlpNzMzbGkzNUBjMjMyLTMyX2MxYWNjNC1iYSNqX3AzMmRrLl9hLS1kLTRzcw%3D%3D&btag=80010e00090000&cquery=103R_103S_100b_105O_103Q&dy_q=1763349437&feature_id=f0150a16a324336cda5d6dd0b69ed299&l=2025111711171762F9CFDCE6CCFAADBF65",
          "like_cnt": 68068,
          "follow_cnt": 623,
          "follow_rate": 0.000098,
          "like_rate": 0.011565,
          "media_type": 4,
          "favorite_id": 0,
          "is_favorite": false,
          "image_cnt": 0
        }
      ]
    },
    "extra": {
      "now": 1763349438000
    },
    "message": ""
  }
}